<?xml version="1.0" encoding="UTF-8"?>
<svg width="1049px" height="583px" viewBox="0 0 1049 583" version="1.1" xmlns="http://www.w3.org/2000/svg" xmlns:xlink="http://www.w3.org/1999/xlink">
    <title>Untitled</title>
    <g id="Page-1" stroke="none" stroke-width="1" fill="none" fill-rule="evenodd">
        <g id="soundcloud-icon" fill="#FFFFFF" fill-rule="nonzero">
            <path d="M0,478.216 C0,491.23 4.718,501.07 14.152,507.74 C23.587,514.409 33.672,516.767 44.408,514.816 C54.493,512.864 61.569,509.285 65.637,504.08 C69.703,498.875 71.737,490.253 71.737,478.216 L71.737,336.696 C71.737,326.61 68.24,318.07 61.245,311.076 C54.251,304.081 45.711,300.584 35.625,300.584 C25.865,300.584 17.488,304.081 10.493,311.076 C3.498,318.07 0,326.61 0,336.696 L0,478.216 Z M112.24,538.728 C112.24,548.164 115.575,555.239 122.244,559.957 C128.914,564.675 137.454,567.033 147.864,567.033 C158.6,567.033 167.302,564.674 173.972,559.957 C180.641,555.24 183.976,548.164 183.976,538.728 L183.976,208.84 C183.976,199.08 180.478,190.702 173.484,183.708 C166.489,176.714 157.949,173.216 147.864,173.216 C138.104,173.216 129.726,176.714 122.732,183.708 C115.737,190.703 112.24,199.08 112.24,208.84 L112.24,538.728 L112.24,538.728 Z M223.992,554.344 C223.992,563.779 227.408,570.855 234.24,575.573 C241.072,580.29 249.856,582.649 260.593,582.649 C271.003,582.649 279.543,580.29 286.212,575.573 C292.882,570.855 296.217,563.779 296.217,554.344 L296.217,253.248 C296.217,243.163 292.719,234.541 285.725,227.384 C278.73,220.227 270.353,216.649 260.593,216.649 C250.507,216.649 241.886,220.227 234.729,227.384 C227.572,234.541 223.993,243.163 223.993,253.248 L223.993,554.344 L223.992,554.344 Z M336.232,555.808 C336.232,573.702 348.269,582.649 372.344,582.649 C396.418,582.649 408.455,573.702 408.455,555.808 L408.455,67.808 C408.455,40.48 400.159,25.027 383.567,21.448 C372.831,18.845 362.257,21.936 351.847,30.72 C341.436,39.504 336.231,51.866 336.231,67.808 L336.231,555.808 L336.232,555.808 Z M450.425,569.96 L450.425,39.016 C450.425,22.099 455.467,12.014 465.553,8.76 C487.35,3.555 508.985,0.952 530.457,0.952 C580.232,0.952 626.593,12.664 669.536,36.088 C712.48,59.512 747.21,91.476 773.724,131.98 C800.239,172.485 815.611,217.136 819.84,265.937 C839.685,257.478 860.831,253.249 883.279,253.249 C928.826,253.249 967.785,269.353 1000.155,301.561 C1032.526,333.77 1048.712,372.484 1048.712,417.706 C1048.712,463.253 1032.526,502.13 1000.155,534.338 C967.785,566.546 928.989,582.65 883.767,582.65 L459.207,582.162 C456.278,581.186 454.082,579.396 452.618,576.794 C451.154,574.192 450.425,571.912 450.425,569.96 L450.425,569.96 Z" id="Shape"></path>
        </g>
    </g>
</svg>